…
    ## `summarise()` has grouped output by 'medical_specialty'. You can override using
    ## the `.groups` argument.

``` r
# Print the top words for each medical specialty
print(top_words_per_specialty)
```

    ## # A tibble: 171 × 3
    ## # Groups:   medical_specialty [30]
    ##    medical_specialty    word         count
    ##    <chr>                <chr>        <int>
    ##  1 Allergy / Immunology allergies        4
    ##  2 Allergy / Immunology allegra          3
    ##  3 Allergy / Immunology clear            3
    ##  4 Allergy / Immunology prescription     3
    ##  5 Allergy / Immunology sprays           3
    ##  6 Bariatrics           abdomen         20
    ##  7 Bariatrics           procedure       18
    ##  8 Bariatrics           weight          15
    ##  9 Bariatrics           gastric         14
    ## 10 Bariatrics           pounds          13
    ## # ℹ 161 more rows
…
