…
``` r
# find median value for each station
median_by_station <- data %>%
  group_by(USAFID) %>%
  summarise(
    temp = median(temp, na.rm = TRUE),
    wind.sp = median(wind.sp,na.rm = TRUE),
    atm.press = median(atm.press,na.rm = TRUE),
    elev = median(elev,na.rm = TRUE)
  )
median_by_station
```

    ## # A tibble: 1,852 × 5
    ##    USAFID  temp wind.sp atm.press  elev
    ##     <int> <dbl>   <dbl>     <dbl> <dbl>
    ##  1 690150  26.7     4.1     1009.   696
    ##  2 720110  28       3.1       NA    336
    ##  3 720113  20       3.1       NA    222
    ##  4 720120  24       3.6       NA      6
    ##  5 720137  21.1     2.6       NA    178
    ##  6 720151  28.0     3.6       NA   1315
    ##  7 720169  23       3.6       NA    149
    ##  8 720170  23.5     2.6       NA    117
    ##  9 720172  23.4     2.1       NA    329
    ## 10 720175  25       2.6     1011.    82
    ## # … with 1,842 more rows
…
stations_with_median_atm_press <- median_by_station %>%
  group_by(USAFID) %>%
  filter(quantile(atm.press, 0.5, na.rm = TRUE) == median_atm_press) %>%
  distinct(USAFID)
```

Next identify the stations have these median values.

``` r
# print the station IDs
print(stations_with_median_temp)
```

    ## # A tibble: 51 × 1
    ## # Groups:   USAFID [51]
    ##    USAFID
    ##     <int>
    ##  1 720137
    ##  2 720285
    ##  3 720413
    ##  4 720674
    ##  5 722172
    ##  6 722185
    ##  7 723084
    ##  8 723117
    ##  9 723118
    ## 10 723120
    ## # … with 41 more rows

``` r
print(stations_with_median_wind_sp)
```

    ## # A tibble: 577 × 1
    ## # Groups:   USAFID [577]
    ##    USAFID
    ##     <int>
    ##  1 720110
    ##  2 720113
    ##  3 720258
    ##  4 720261
    ##  5 720266
    ##  6 720267
    ##  7 720268
    ##  8 720272
    ##  9 720283
    ## 10 720284
    ## # … with 567 more rows

``` r
print(stations_with_median_atm_press)
```

    ## # A tibble: 41 × 1
    ## # Groups:   USAFID [41]
    ##    USAFID
    ##     <int>
    ##  1 722069
    ##  2 722070
    ##  3 722185
    ##  4 722197
    ##  5 722223
    ##  6 722225
    ##  7 722230
    ##  8 722280
    ##  9 722310
    ## 10 722499
    ## # … with 31 more rows
…
# calculate Euclidean distance
median_by_station_with_state$distance <- sqrt((median_by_station_with_state$temp - median_temp)^2 + 
                              (median_by_station_with_state$wind.sp - median_wind_sp)^2)

# find the station with the smallest distance for each state
closest_stations <- median_by_station_with_state %>%
  group_by(STATE) %>%
  slice(which.min(distance)) %>%
  select(STATE, USAFID, temp, wind.sp, distance, LAT, LON)

# print the result
print(closest_stations)
```

    ## # A tibble: 48 × 7
    ## # Groups:   STATE [48]
    ##    STATE USAFID  temp wind.sp distance   LAT    LON
    ##    <chr>  <int> <dbl>   <dbl>    <dbl> <dbl>  <dbl>
    ##  1 AL    720413  21.1     2.6    0.5    34.3  -87.6
    ##  2 AR    723445  22.2     2.6    1.21   36.0  -94.2
    ##  3 AZ    723723  20.6     3.6    0.707  34.6 -112. 
    ##  4 CA    724800  20.6     3.1    0.5    37.4 -118. 
    ##  5 CO    720531  20.8     3.1    0.300  38.8 -108. 
    ##  6 CT    725045  20.6     3.1    0.5    41.3  -72.9
    ##  7 DE    724093  21.1     3.6    0.5    38.7  -75.4
    ##  8 FL    722067  23       3.1    1.90   30.2  -81.9
    ##  9 GA    722185  21.1     3.1    0      34.3  -83.8
    ## 10 IA    725465  21.1     3.1    0      41.1  -92.4
    ## # … with 38 more rows
…
